{
  "type": "minecraft:crafting_shaped",
  "pattern": [
    " A ",
    " I ",
    "NEN"
  ],
  "key": {
    "A": {
      "item": "botania:red_string"
    },
    "E": {
      "item": "peculiarpieces:redstone_activator"
    },
    "I": {
      "item": "minecraft:iron_nugget"
    },
    "N": {
      "item": "minecraft:iron_ingot"
    }
  },
  "result": {
    "item": "peculiarpieces:redstone_remote"
  }
}
