{
  "type": "botania:orechid",
  "input": {
    "type": "block",
    "block": "minecraft:deepslate"
  },
  "output": {
    "type": "block",
    "block": "modern_industrialization:deepslate_tin_ore"
  },
  "weight": 38
}
