{
  "type": "minecraft:crafting_shaped",
  "pattern": [
    "SPS",
    "PCP",
    "SPS"
  ],
  "key": {
    "S": {
      "item": "minecraft:nether_star"
    },
    "P": {
      "item": "peculiarpieces:position_pearl"
    },
    "C": {
      "item": "minecraft:chorus_fruit"
    }
  },
  "result": {
    "item": "peculiarpieces:transport_pearl"
  }
}
