{
  "type": "minecraft:crafting_shaped",

  "pattern":
  [
    "BBB",
    "XXX"
  ],

  "key":
  {
    "B":
    {
      "item": "minecraft:white_wool"
    },

    "X":
    {
      "item": "minecraft:string"
    }
  },

  "result":
  {
    "item": "travelersbackpack:white_sleeping_bag",
    "count": 1
  }
}
